asgiref==3.7.2
certifi==2023.11.17
cfgv==3.4.0
distlib==0.3.7
Django==4.1
environs==9.5.0
filelock==3.13.1
identify==2.5.32
marshmallow==3.20.1
mysqlclient==2.2.0
nodeenv==1.8.0
packaging==23.2
platformdirs==4.0.0
python-dotenv==1.0.0
PyYAML==6.0.1
sqlparse==0.4.4
typing_extensions==4.8.0
tzdata==2023.3
virtualenv==20.25.0
